{
    "type": "application",
    "source-directories": [
        "src"
    ],
    "elm-version": "0.19.0",
    "dependencies": {
        "direct": {
            "NoRedInk/elm-json-decode-pipeline": "1.0.0",
            "elm/browser": "1.0.0",
            "elm/core": "1.0.0",
            "elm/html": "1.0.0",
            "elm/json": "1.0.0",
            "elm/random": "1.0.0",
            "elm/url": "1.0.0",
            "elm-community/list-extra": "8.1.0",
            "elm-community/maybe-extra": "5.0.0",
            "elm-community/random-extra": "3.0.0"
        },
        "indirect": {
            "elm/time": "1.0.0",
            "elm/virtual-dom": "1.0.0"
        }
    },
    "test-dependencies": {
        "direct": {
            "elm-explorations/test": "1.0.0"
        },
        "indirect": {}
    }
}